<?xml version="1.0" encoding="UTF-8"?>
<svg id="a" xmlns="http://www.w3.org/2000/svg" viewBox="0 0 32 32" >
  <path d="M15.97,11.98c-2.21,0-4,1.79-4,4s1.79,4,4,4,4-1.79,4-4-1.79-4-4-4Zm0,7c-1.65,0-3-1.35-3-3s1.35-3,3-3,3,1.35,3,3-1.35,3-3,3Z" fill="currentColor" />
  <path d="M21,8.28l-1.8,1.34c-.33-.17-.67-.31-1.03-.43l-.32-2.22h-3.77l-.32,2.22c-.35,.11-.7,.26-1.03,.43l-1.8-1.34-2.66,2.66,1.34,1.8c-.17,.33-.31,.68-.43,1.03l-2.22,.32v3.77l2.22,.32c.11,.35,.26,.7,.43,1.03l-1.34,1.79,2.66,2.66,1.8-1.34c.33,.17,.68,.31,1.03,.43l.32,2.22h3.77l.33-2.22c.35-.12,.7-.26,1.03-.43l1.8,1.34,2.66-2.66-1.34-1.8c.17-.33,.31-.67,.43-1.03l2.22-.32v-3.77l-2.22-.33c-.11-.35-.26-.7-.43-1.03l1.34-1.8-2.66-2.66Zm.3,4.66c.25,.44,.45,.91,.58,1.4l.09,.32,2,.29v2.04l-2,.29-.09,.32c-.13,.49-.33,.96-.58,1.4l-.16,.28,1.21,1.62-1.44,1.44-1.62-1.21-.28,.16c-.44,.25-.91,.45-1.4,.58l-.31,.09-.29,2h-2.04l-.29-2-.31-.09c-.49-.13-.96-.33-1.4-.58l-.28-.16-1.62,1.21-1.44-1.44,1.21-1.62-.16-.28c-.25-.44-.45-.92-.58-1.41l-.09-.31-2-.29v-2.04l2-.29,.09-.32c.13-.49,.33-.96,.58-1.41l.16-.28-1.21-1.62,1.44-1.44,1.62,1.21,.28-.16c.44-.25,.92-.45,1.41-.58l.31-.09,.29-2h2.04l.29,2,.32,.09c.49,.13,.96,.33,1.4,.58l.28,.16,1.62-1.21,1.44,1.44-1.21,1.62,.16,.28Z" fill="currentColor" />
  <path d="M26.55,4h3.45v-1h-5v5h1v-3.15c3.18,2.85,5,6.85,5,11.15,0,8.27-6.73,15-15,15-1.75,0-3.47-.3-5.11-.89l-.34,.94c1.74,.63,3.58,.95,5.45,.95,8.82,0,16-7.18,16-16,0-4.64-1.99-8.96-5.45-12Z" fill="currentColor" />
  <path d="M5.45,28H2v1H7v-5h-1v3.15c-3.18-2.84-5-6.84-5-11.15C1,7.73,7.73,1,16,1c1.75,0,3.47,.3,5.1,.89l.34-.94c-1.74-.63-3.57-.95-5.44-.95C7.18,0,0,7.18,0,16c0,4.66,1.99,8.96,5.45,12Z" fill="currentColor" />
</svg>