<svg width="32" height="33" viewBox="0 0 32 33" fill="currentColor" fill-opacity="0" xmlns="http://www.w3.org/2000/svg">
<g clip-path="url(#clip0_7608_14892)">
<path d="M13.9307 3.65167C16.9772 3.65211 19.9311 4.6989 22.2981 6.61685C24.6651 8.53479 26.3016 11.2075 26.9336 14.1878" stroke="currentColor" stroke-width="1.27982" stroke-linecap="round" stroke-linejoin="round"/>
<path d="M25.407 23.6616C24.2874 25.5692 22.7095 27.1671 20.8162 28.3107C18.9229 29.4543 16.7742 30.1072 14.5647 30.2104C12.3553 30.3136 10.155 29.8638 8.16341 28.9017C6.17177 27.9396 4.45173 26.4957 3.1592 24.7008C1.86666 22.9059 1.04251 20.8169 0.761438 18.623C0.480368 16.4291 0.75127 14.1997 1.54959 12.1369C2.34791 10.0742 3.6484 8.2433 5.33318 6.81021C7.01796 5.37712 9.03375 4.38716 11.1978 3.93005" stroke="currentColor" stroke-width="1.27982" stroke-linecap="round" stroke-linejoin="round"/>
<path d="M4.5497 16.9426C4.52668 15.6963 4.75227 14.4579 5.21329 13.2998C5.67432 12.1416 6.36153 11.087 7.23477 10.1975C8.10801 9.30796 9.14978 8.6014 10.2992 8.11906C11.4486 7.63673 12.6826 7.38831 13.9291 7.38831C15.1757 7.38831 16.4097 7.63673 17.5591 8.11906C18.7085 8.6014 19.7503 9.30796 20.6235 10.1975C21.4968 11.087 22.184 12.1416 22.645 13.2998C23.106 14.4579 23.3316 15.6963 23.3086 16.9426" stroke="currentColor" stroke-width="1.27982" stroke-linecap="round" stroke-linejoin="round"/>
<path d="M22.3483 21.0828C21.5145 22.776 20.1895 24.1785 18.5463 25.1071C16.9031 26.0357 15.0181 26.4472 13.1375 26.2879C11.2568 26.1286 9.46783 25.4059 8.00423 24.2142C6.54062 23.0225 5.47037 21.4172 4.93323 19.6078" stroke="currentColor" stroke-width="1.27982" stroke-linecap="round" stroke-linejoin="round"/>
<path d="M18.7675 19.5023C18.1403 20.6828 17.1028 21.5931 15.8507 22.0614C14.5986 22.5297 13.2184 22.5236 11.9704 22.0444C10.7225 21.5651 9.69301 20.6458 9.07619 19.4597C8.45938 18.2737 8.29785 16.903 8.62208 15.6061C8.94631 14.3092 9.73388 13.1757 10.8363 12.4195C11.9386 11.6633 13.2796 11.3366 14.6063 11.501C15.933 11.6654 17.1536 12.3095 18.0381 13.312C18.9225 14.3144 19.4096 15.6058 19.4074 16.9426" stroke="currentColor" stroke-width="1.27982" stroke-linecap="round" stroke-linejoin="round"/>
<path d="M13.9333 18.5127C14.7989 18.5127 15.5007 17.811 15.5007 16.9453C15.5007 16.0797 14.7989 15.378 13.9333 15.378C13.0677 15.378 12.366 16.0797 12.366 16.9453C12.366 17.811 13.0677 18.5127 13.9333 18.5127Z" fill="currentColor" stroke="currentColor" stroke-width="1.27982" stroke-linecap="round" stroke-linejoin="round"/>
<path d="M13.9307 16.9426H29.634" stroke="currentColor" stroke-width="1.27982" stroke-linecap="round" stroke-linejoin="round"/>
<path d="M25.8991 14.5078H31.3543L29.6329 16.9426H24.1809L25.8991 14.5078Z" stroke="currentColor" stroke-width="1.27982" stroke-linecap="round" stroke-linejoin="round"/>
<path d="M25.8991 19.3774H31.3543L29.6329 16.9426H24.1809L25.8991 19.3774Z" stroke="currentColor" stroke-width="1.27982" stroke-linecap="round" stroke-linejoin="round"/>
</g>
<defs>
<clipPath id="clip0_7608_14892">
<rect width="31.9954" height="31.9954" fill="white" transform="translate(0 0.944824)"/>
</clipPath>
</defs>
</svg>
