<svg viewBox="0 0 32 32" fill="currentColor" xmlns="http://www.w3.org/2000/svg">
<path d="M16 31.48L0 26.1V0L17 5.7V29.02L30 24.66V2.78L20.86 5.84L20.22 3.94L32 0V26.1L16 31.46V31.48ZM2 24.66L15 29.02V7.14L2 2.78V24.66Z"/>
<path d="M12 22.12L4 19.44V9.33997L12 12.02V22.12ZM6 18L10 19.34V13.44L6 12.1V18Z"/>
<path d="M28 17.34L20 20.02V22.12L28 19.44V17.34Z"/>
<path d="M28 11.34L20 14.02V16.12L28 13.44V11.34Z"/>
</svg>
