<svg width="32" height="33" viewBox="0 0 32 33" fill="currentColor" fill-opacity="0" xmlns="http://www.w3.org/2000/svg">
<g clip-path="url(#clip0_7608_14981)">
<path d="M31.3564 6.89734H0.640869V26.936H31.3564V6.89734Z" stroke="currentColor" stroke-width="1.27982" stroke-linecap="round" stroke-linejoin="round"/>
<path d="M28.4798 9.99448H24.6816V14.9658H28.4798V9.99448Z" stroke="currentColor" stroke-width="1.27982" stroke-linecap="round" stroke-linejoin="round"/>
<path d="M4.75409 15.2834H12.4906" stroke="currentColor" stroke-width="1.27982" stroke-linecap="round" stroke-linejoin="round"/>
<path d="M4.75409 18.2141H16.538" stroke="currentColor" stroke-width="1.27982" stroke-linecap="round" stroke-linejoin="round"/>
<path d="M4.75409 21.1481H8.94971" stroke="currentColor" stroke-width="1.27982" stroke-linecap="round" stroke-linejoin="round"/>
</g>
<defs>
<clipPath id="clip0_7608_14981">
<rect width="31.9954" height="31.9954" fill="white" transform="translate(0 0.917358)"/>
</clipPath>
</defs>
</svg>
