<svg width="32" height="33" viewBox="0 0 32 33" fill="currentColor" fill-opacity="0" xmlns="http://www.w3.org/2000/svg">
<g clip-path="url(#clip0_7608_14972)">
<path d="M5.04745 2.58709H29.6455C30.0986 2.58709 30.5332 2.7671 30.8536 3.08751C31.1741 3.40793 31.3541 3.84251 31.3541 4.29564V22.4498C31.3541 22.903 31.1741 23.3375 30.8536 23.658C30.5332 23.9784 30.0986 24.1584 29.6455 24.1584H2.34704C1.89391 24.1584 1.45933 23.9784 1.13891 23.658C0.818497 23.3375 0.638489 22.903 0.638489 22.4498V4.29564C0.638489 3.84251 0.818497 3.40793 1.13891 3.08751C1.45933 2.7671 1.89391 2.58709 2.34704 2.58709" stroke="currentColor" stroke-width="1.27982" stroke-linecap="round" stroke-linejoin="round"/>
<path d="M30.9669 19.6182H0.638489" stroke="currentColor" stroke-width="1.27982" stroke-linecap="round" stroke-linejoin="round"/>
<path d="M19.9615 26.4236V28.3914H12.033V24.1584" stroke="currentColor" stroke-width="1.27982" stroke-linecap="round" stroke-linejoin="round"/>
<path d="M10.4744 28.401H21.5192C22.0302 28.4009 22.5205 28.6026 22.8835 28.962C23.2466 29.3215 23.4531 29.8098 23.4582 30.3207V31.1654H8.53552V30.3207C8.54058 29.8098 8.74709 29.3215 9.11016 28.962C9.47323 28.6026 9.96352 28.4009 10.4744 28.401V28.401Z" stroke="currentColor" stroke-width="1.27982" stroke-linecap="round" stroke-linejoin="round"/>
<path d="M15.9975 15.9483L21.0976 12.1857C21.1662 12.1345 21.2172 12.0633 21.2436 11.9819C21.2699 11.9006 21.2703 11.813 21.2448 11.7313L19.4882 6.23772C19.4752 6.19704 19.4496 6.16155 19.4151 6.13636C19.3806 6.11118 19.339 6.09761 19.2962 6.09761C19.2535 6.09761 19.2119 6.11118 19.1774 6.13636C19.1429 6.16155 19.1173 6.19704 19.1043 6.23772L17.9364 9.88519H14.0586L12.8908 6.23772C12.8777 6.19704 12.8521 6.16155 12.8176 6.13636C12.7831 6.11118 12.7415 6.09761 12.6988 6.09761C12.6561 6.09761 12.6145 6.11118 12.58 6.13636C12.5455 6.16155 12.5198 6.19704 12.5068 6.23772L10.7503 11.7313C10.7247 11.813 10.7251 11.9006 10.7515 11.9819C10.7778 12.0633 10.8289 12.1345 10.8974 12.1857L15.9975 15.9483Z" stroke="currentColor" stroke-width="1.27982" stroke-linecap="round" stroke-linejoin="round"/>
</g>
<defs>
<clipPath id="clip0_7608_14972">
<rect width="31.9954" height="31.9954" fill="white" transform="translate(0 0.884888)"/>
</clipPath>
</defs>
</svg>
