<svg width="33" height="33" viewBox="0 0 33 33" fill="currentColor" fill-opacity="0" xmlns="http://www.w3.org/2000/svg">
<g clip-path="url(#clip0_7608_14943)">
<path d="M13.0402 19.9937L1.8098 12.7243L32.1734 1.6123L18.9977 32.3279L14.0512 22.0894" stroke="currentColor" stroke-width="1.27982" stroke-linecap="round" stroke-linejoin="round"/>
<path d="M13.0406 19.9937L24.7381 8.75696" stroke="currentColor" stroke-width="1.27982" stroke-linecap="round" stroke-linejoin="round"/>
</g>
<defs>
<clipPath id="clip0_7608_14943">
<rect width="31.9954" height="31.9954" fill="white" transform="translate(0.995361 0.972412)"/>
</clipPath>
</defs>
</svg>
