<svg width="33" height="33" viewBox="0 0 33 33" fill="currentColor" fill-opacity="0" xmlns="http://www.w3.org/2000/svg">
<g clip-path="url(#clip0_7608_14931)">
<path d="M14.0486 2.30282C16.2195 1.88644 18.4556 1.95451 20.5972 2.50217C22.7387 3.04983 24.733 4.06357 26.4375 5.47101C28.142 6.87845 29.5147 8.64486 30.4577 10.6441C31.4006 12.6434 31.8905 14.8262 31.8924 17.0367C31.8923 18.0184 31.7969 18.9978 31.6077 19.9611" stroke="#171321" stroke-width="1.27982" stroke-linecap="round" stroke-linejoin="round"/>
<path d="M19.8733 31.7386C17.6948 32.1792 15.4457 32.1305 13.2883 31.596C11.1309 31.0615 9.11918 30.0546 7.39839 28.6479C5.67759 27.2412 4.29069 25.4699 3.33786 23.4619C2.38503 21.4539 1.89006 19.2593 1.88869 17.0367C1.8884 15.8668 2.02368 14.7008 2.29183 13.562" stroke="#171321" stroke-width="1.27982" stroke-linecap="round" stroke-linejoin="round"/>
<path d="M15.7124 31.8569C13.3466 30.1772 11.4177 27.955 10.0872 25.3765C8.75678 22.7979 8.06353 19.9382 8.06553 17.0367C8.06553 16.7871 8.06553 16.5407 8.06553 16.2944" stroke="#171321" stroke-width="1.27982" stroke-linecap="round" stroke-linejoin="round"/>
<path d="M25.652 18.5788C25.6936 18.0701 25.716 17.555 25.716 17.0367C25.7175 14.1021 25.0085 11.2109 23.6495 8.60999C22.2906 6.00909 20.3221 3.77588 17.9123 2.10123" stroke="#171321" stroke-width="1.27982" stroke-linecap="round" stroke-linejoin="round"/>
<path d="M16.8917 2.03406V32.0393" stroke="#171321" stroke-width="1.27982" stroke-linecap="round" stroke-linejoin="round"/>
<path d="M14.0486 12.0358H30.8782" stroke="#171321" stroke-width="1.27982" stroke-linecap="round" stroke-linejoin="round"/>
<path d="M2.90306 22.0376H19.5471" stroke="#171321" stroke-width="1.27982" stroke-linecap="round" stroke-linejoin="round"/>
<path d="M11.4142 11.6711C10.3558 10.7319 8.98978 10.2132 7.57474 10.2132C6.15969 10.2132 4.79372 10.7319 3.73529 11.6711" stroke="#171321" stroke-width="1.27982" stroke-linecap="round" stroke-linejoin="round"/>
<path d="M7.57393 8.20877C8.51036 8.20877 9.26949 7.44964 9.26949 6.51321C9.26949 5.57678 8.51036 4.81766 7.57393 4.81766C6.6375 4.81766 5.87837 5.57678 5.87837 6.51321C5.87837 7.44964 6.6375 8.20877 7.57393 8.20877Z" stroke="#171321" stroke-width="1.27982" stroke-linecap="round" stroke-linejoin="round"/>
<path d="M7.59297 13.178C10.8019 13.178 13.4033 10.5766 13.4033 7.36767C13.4033 4.1587 10.8019 1.55731 7.59297 1.55731C4.384 1.55731 1.78261 4.1587 1.78261 7.36767C1.78261 10.5766 4.384 13.178 7.59297 13.178Z" stroke="#171321" stroke-width="1.27982" stroke-linecap="round" stroke-linejoin="round"/>
<path d="M30.2116 30.7659C29.1532 29.8267 27.7872 29.308 26.3722 29.308C24.9571 29.308 23.5912 29.8267 22.5327 30.7659" stroke="#171321" stroke-width="1.27982" stroke-linecap="round" stroke-linejoin="round"/>
<path d="M26.3743 27.3036C27.3107 27.3036 28.0698 26.5445 28.0698 25.6081C28.0698 24.6716 27.3107 23.9125 26.3743 23.9125C25.4378 23.9125 24.6787 24.6716 24.6787 25.6081C24.6787 26.5445 25.4378 27.3036 26.3743 27.3036Z" stroke="#171321" stroke-width="1.27982" stroke-linecap="round" stroke-linejoin="round"/>
<path d="M26.3943 32.2729C29.6032 32.2729 32.2046 29.6715 32.2046 26.4625C32.2046 23.2535 29.6032 20.6521 26.3943 20.6521C23.1853 20.6521 20.5839 23.2535 20.5839 26.4625C20.5839 29.6715 23.1853 32.2729 26.3943 32.2729Z" stroke="#171321" stroke-width="1.27982" stroke-linecap="round" stroke-linejoin="round"/>
</g>
<defs>
<clipPath id="clip0_7608_14931">
<rect width="31.9954" height="31.9954" fill="white" transform="translate(0.995361 0.917358)"/>
</clipPath>
</defs>
</svg>
