<svg width="33" height="33" viewBox="0 0 33 33" fill="currentColor" fill-opacity="0" xmlns="http://www.w3.org/2000/svg">
<g clip-path="url(#clip0_7608_14926)">
<path d="M4.35374 24.5986V9.56074C4.35374 9.15343 4.51555 8.7628 4.80356 8.47478C5.09158 8.18677 5.48221 8.02496 5.88952 8.02496H8.63793" stroke="currentColor" stroke-width="1.27982" stroke-linecap="round" stroke-linejoin="round"/>
<path d="M29.6341 24.5986V9.56074C29.6341 9.15343 29.4723 8.7628 29.1843 8.47478C28.8962 8.18677 28.5056 8.02496 28.0983 8.02496H25.1707" stroke="currentColor" stroke-width="1.27982" stroke-linecap="round" stroke-linejoin="round"/>
<path d="M3.17242 28.262C2.76511 28.262 2.37448 28.1002 2.08646 27.8122C1.79845 27.5242 1.63664 27.1335 1.63664 26.7262V24.5985H32.3522V26.7166C32.3522 27.124 32.1904 27.5146 31.9024 27.8026C31.6144 28.0906 31.2237 28.2524 30.8164 28.2524L3.17242 28.262Z" stroke="currentColor" stroke-width="1.27982" stroke-linecap="round" stroke-linejoin="round"/>
<path d="M14.7541 6.01886L16.6994 7.29867C17.0381 7.52083 17.3163 7.82367 17.509 8.17999C17.7017 8.5363 17.8028 8.93491 17.8033 9.33998V9.61834C17.8024 10.1201 17.6025 10.6011 17.2474 10.9556C16.8922 11.3101 16.4109 11.5093 15.9091 11.5093H14.8661C14.6763 11.5088 14.4883 11.5459 14.3129 11.6182C14.1375 11.6905 13.978 11.7967 13.8437 11.9308C13.7093 12.0648 13.6028 12.224 13.53 12.3993C13.4573 12.5746 13.4199 12.7625 13.4199 12.9523V13.3746C13.4199 13.5644 13.4573 13.7523 13.53 13.9275C13.6028 14.1028 13.7093 14.262 13.8437 14.3961C13.978 14.5301 14.1375 14.6363 14.3129 14.7087C14.4883 14.781 14.6763 14.818 14.8661 14.8176V14.8176C15.0333 14.8176 15.1988 14.8508 15.353 14.9154C15.5072 14.9799 15.647 15.0745 15.7643 15.1936C15.8816 15.3127 15.9741 15.4539 16.0363 15.6091C16.0985 15.7643 16.1292 15.9302 16.1267 16.0974C16.1271 16.2632 16.0948 16.4275 16.0317 16.5808C15.9685 16.7341 15.8757 16.8735 15.7586 16.9909C15.6415 17.1083 15.5024 17.2014 15.3492 17.265C15.1961 17.3285 15.0319 17.3612 14.8661 17.3612H10.8731" stroke="currentColor" stroke-width="1.27982" stroke-linecap="round" stroke-linejoin="round"/>
<path d="M23.3264 9.21198L20.5652 10.7414C20.3138 10.8797 20.1042 11.083 19.9584 11.3301C19.8126 11.5772 19.736 11.859 19.7365 12.146V13.4738C19.7365 13.7283 19.8376 13.9725 20.0176 14.1525C20.1976 14.3325 20.4418 14.4336 20.6964 14.4336V14.4336C21.0451 14.4336 21.3796 14.5722 21.6262 14.8188C21.8728 15.0654 22.0114 15.3999 22.0114 15.7486V18.2251" stroke="currentColor" stroke-width="1.27982" stroke-linecap="round" stroke-linejoin="round"/>
<path d="M16.9946 20.5448C21.1012 20.5448 24.4303 17.2157 24.4303 13.1091C24.4303 9.00243 21.1012 5.67334 16.9946 5.67334C12.8879 5.67334 9.55884 9.00243 9.55884 13.1091C9.55884 17.2157 12.8879 20.5448 16.9946 20.5448Z" stroke="currentColor" stroke-width="1.27982" stroke-linecap="round" stroke-linejoin="round"/>
</g>
<defs>
<clipPath id="clip0_7608_14926">
<rect width="31.9954" height="31.9954" fill="white" transform="translate(0.995361 0.921936)"/>
</clipPath>
</defs>
</svg>
