<svg width="33" height="33" viewBox="0 0 33 33" fill="currentColor" fill-opacity="0" xmlns="http://www.w3.org/2000/svg">
<g clip-path="url(#clip0_7608_14984)">
<path d="M28.3863 4.77493H15.2682L12.6894 1.5434H1.63501V21.6813C1.63586 22.6854 2.03535 23.6482 2.74569 24.3579C3.45604 25.0677 4.41911 25.4663 5.42326 25.4663V25.4663" stroke="currentColor" stroke-width="1.27982" stroke-linecap="round" stroke-linejoin="round"/>
<path d="M5.42366 25.4663H28.5627C29.5669 25.4663 30.5299 25.0676 31.2403 24.3579C31.9506 23.6481 32.3501 22.6854 32.351 21.6812V7.60327H9.21191V21.6812C9.21107 22.6854 8.81157 23.6481 8.10123 24.3579C7.39089 25.0676 6.42781 25.4663 5.42366 25.4663Z" stroke="currentColor" stroke-width="1.27982" stroke-linecap="round" stroke-linejoin="round"/>
<path d="M20.8006 20.4206L25.088 17.3075C25.1453 17.2653 25.1879 17.2061 25.2097 17.1384C25.2315 17.0706 25.2315 16.9977 25.2095 16.93L23.7345 12.3866C23.7229 12.3535 23.7013 12.3248 23.6726 12.3045C23.6439 12.2842 23.6097 12.2733 23.5746 12.2733C23.5395 12.2733 23.5052 12.2842 23.4765 12.3045C23.4479 12.3248 23.4262 12.3535 23.4146 12.3866L22.4355 15.4006H19.172L18.1897 12.3802C18.1781 12.3471 18.1565 12.3184 18.1278 12.2981C18.0991 12.2778 18.0649 12.2669 18.0298 12.2669C17.9947 12.2669 17.9604 12.2778 17.9317 12.2981C17.9031 12.3184 17.8814 12.3471 17.8698 12.3802L16.3948 16.9236C16.3729 16.9913 16.3728 17.0642 16.3947 17.132C16.4165 17.1997 16.4591 17.2589 16.5164 17.3011L20.8006 20.4206Z" stroke="currentColor" stroke-width="1.27982" stroke-linecap="round" stroke-linejoin="round"/>
<path d="M15.617 28.0548V29.5042H1.63501V32.259H32.3506V29.5042H18.3686V28.1316" stroke="currentColor" stroke-width="1.27982" stroke-linecap="round" stroke-linejoin="round"/>
<path d="M25.2316 32.2638V29.5042" stroke="currentColor" stroke-width="1.27982" stroke-linecap="round" stroke-linejoin="round"/>
<path d="M8.75404 29.5042V32.2638" stroke="currentColor" stroke-width="1.27982" stroke-linecap="round" stroke-linejoin="round"/>
</g>
<defs>
<clipPath id="clip0_7608_14984">
<rect width="31.9954" height="31.9954" fill="white" transform="translate(0.995361 0.903442)"/>
</clipPath>
</defs>
</svg>
