<svg width="33" height="33" viewBox="0 0 33 33" fill="currentColor" fill-opacity="0" xmlns="http://www.w3.org/2000/svg">
<g clip-path="url(#clip0_7608_14940)">
<path d="M25.5901 6.0629C25.8901 6.0629 26.1871 6.12199 26.4643 6.23679C26.7415 6.3516 26.9933 6.51987 27.2054 6.732C27.4176 6.94414 27.5858 7.19597 27.7006 7.47314C27.8155 7.7503 27.8745 8.04737 27.8745 8.34737V29.9667C27.8745 30.5728 27.634 31.1542 27.2056 31.5832C26.7773 32.0121 26.1962 32.2535 25.5901 32.2543H8.56533C7.95861 32.2543 7.37673 32.0133 6.94771 31.5843C6.51869 31.1553 6.27766 30.5734 6.27766 29.9667V8.34737C6.27851 7.74119 6.51991 7.16014 6.94884 6.73181C7.37777 6.30348 7.95916 6.0629 8.56533 6.0629" stroke="currentColor" stroke-width="1.27982" stroke-linecap="round" stroke-linejoin="round"/>
<path d="M20.1953 4.51759C19.8753 0.61735 14.3433 0.47657 13.969 4.51759H11.7453V9.08653H22.4062V4.51759H20.1953Z" stroke="currentColor" stroke-width="1.27982" stroke-linecap="round" stroke-linejoin="round"/>
<path d="M9.55235 9.08644V28.9812H24.5998V9.08644" stroke="currentColor" stroke-width="1.27982" stroke-linecap="round" stroke-linejoin="round"/>
<path d="M16.0378 16.0295H21.2655" stroke="currentColor" stroke-width="1.27982" stroke-linecap="round" stroke-linejoin="round"/>
<path d="M12.7142 16.0295H13.156" stroke="currentColor" stroke-width="1.27982" stroke-linecap="round" stroke-linejoin="round"/>
<path d="M16.0378 12.7915H21.2655" stroke="currentColor" stroke-width="1.27982" stroke-linecap="round" stroke-linejoin="round"/>
<path d="M12.7142 12.7915H13.156" stroke="currentColor" stroke-width="1.27982" stroke-linecap="round" stroke-linejoin="round"/>
<path d="M15.2399 22.466L16.6983 20.232L18.6759 21.2865L20.0638 19.357" stroke="currentColor" stroke-width="1.27982" stroke-linecap="round" stroke-linejoin="round"/>
<path d="M21.1146 25.0906H12.719V19.357" stroke="currentColor" stroke-width="1.27982" stroke-linecap="round" stroke-linejoin="round"/>
</g>
<defs>
<clipPath id="clip0_7608_14940">
<rect width="31.9954" height="31.9954" fill="white" transform="translate(0.995361 0.898804)"/>
</clipPath>
</defs>
</svg>
