<svg viewBox="0 0 24 24" fill="none" xmlns="http://www.w3.org/2000/svg">
  <g clip-path="url(#clip0_346_359)">
    <path d="M16.32 9.684l-1.09-1.09a.645.645 0 00-.916 0l-3.344 3.334-1.272-1.275a.65.65 0 00-.916 0l-1.09 1.092a.648.648 0 000 .915l2.904 2.904a.53.53 0 00.749 0l4.975-4.966a.641.641 0 000-.914z" fill="#FC6D26" />
    <path d="M12 24a.479.479 0 01-.16-.029c-3.078-1.096-7.422-4.226-8.737-6.96-1.226-2.553-1.183-4.684-1.125-7.91.026-1.44.057-3.055 0-5.067a.48.48 0 01.96-.03 87.957 87.957 0 010 5.114c-.06 3.199-.099 5.128 1.032 7.476 1.077 2.241 4.982 5.328 8.19 6.48A.48.48 0 0112 24z" fill="currentColor" />
    <path d="M12 24a.48.48 0 01-.16-.931c3.208-1.147 7.12-4.234 8.19-6.475 1.13-2.348 1.09-4.277 1.032-7.474-.024-1.308-.052-2.774 0-4.56A11.462 11.462 0 0112 1.171 11.56 11.56 0 014.02 4.59a.48.48 0 11-.022-.96 10.625 10.625 0 007.64-3.473.506.506 0 01.72 0 10.586 10.586 0 009.12 3.391.48.48 0 01.566.48 86.334 86.334 0 000 5.067c.062 3.225.1 5.357-1.126 7.92-1.315 2.736-5.659 5.865-8.736 6.96A.48.48 0 0112 24z" fill="currentColor" />
    <path d="M10.97 15.989a1.514 1.514 0 01-1.072-.444L7.354 13a1.127 1.127 0 010-1.596l1.09-1.085a1.124 1.124 0 011.593 0l.933.934 2.993-3a1.13 1.13 0 011.594 0l1.092 1.09a1.13 1.13 0 010 1.595l-4.606 4.606a1.515 1.515 0 01-1.073.444zm-1.73-5.04a.165.165 0 00-.118.05L8.03 12.09a.17.17 0 000 .24l2.547 2.544a.56.56 0 00.787 0l4.606-4.613a.17.17 0 000-.24l-1.09-1.087a.166.166 0 00-.12-.048.16.16 0 00-.118.048l-3.333 3.333a.494.494 0 01-.68 0L9.36 10.994a.167.167 0 00-.12-.05v.005z" fill="currentColor" />
  </g>
  <defs>
    <clipPath id="clip0_346_359">
      <path fill="#fff" d="M0 0h24v24H0z" />
    </clipPath>
  </defs>
</svg>