<svg width="48" height="48" viewBox="0 0 48 48" fill="none" xmlns="http://www.w3.org/2000/svg">
<path d="M18.5999 31.7569H3.38867V0.960083H44.6111V31.7569H42.1103" stroke="white" stroke-width="1.27982" stroke-linecap="round" stroke-linejoin="round"/>
<path d="M36.51 32.7505L35.1372 47.0401H25.8925L24.9229 36.9217" stroke="white" stroke-width="1.27982" stroke-linecap="round" stroke-linejoin="round"/>
<path d="M37.6709 27.6961H22.8389V32.7505H37.6709V27.6961Z" stroke="white" stroke-width="1.27982" stroke-linecap="round" stroke-linejoin="round"/>
<path d="M33.6079 27.7073V25.0242C33.6074 24.4517 33.4462 23.8909 33.1428 23.4055C32.8393 22.9201 32.4057 22.5296 31.8912 22.2785L30.0352 21.3697" stroke="white" stroke-width="1.27982" stroke-linecap="round" stroke-linejoin="round"/>
<path d="M30.6613 20.7589L28.5787 19.8063C28.1631 19.6162 27.6721 19.799 27.482 20.2146L27.4799 20.219C27.2898 20.6346 27.4727 21.1257 27.8883 21.3158L29.9709 22.2684C30.3865 22.4585 30.8775 22.2757 31.0676 21.8601L31.0696 21.8557C31.2597 21.4401 31.0769 20.949 30.6613 20.7589Z" stroke="white" stroke-width="1.27982" stroke-linecap="round" stroke-linejoin="round"/>
<path d="M10.4629 20.1313L21.0325 9.56171" stroke="white" stroke-width="1.27982" stroke-linecap="round" stroke-linejoin="round"/>
<path d="M31.4082 11.403L35.7599 7.05127" stroke="white" stroke-width="1.27982" stroke-linecap="round" stroke-linejoin="round"/>
</svg>
