<svg width="33" height="32" viewBox="0 0 33 32" fill="currentColor" fill-opacity="0" xmlns="http://www.w3.org/2000/svg">
<g clip-path="url(#clip0_7608_14942)">
<path d="M28.0217 15.5402H24.7908" stroke="currentColor" stroke-width="1.27982" stroke-linecap="round" stroke-linejoin="round"/>
<path d="M5.97066 15.5402H9.20151" stroke="currentColor" stroke-width="1.27982" stroke-linecap="round" stroke-linejoin="round"/>
<path d="M16.9907 4.51782V7.74868" stroke="currentColor" stroke-width="1.27982" stroke-linecap="round" stroke-linejoin="round"/>
<path d="M8.30217 7.9989L10.5856 10.2855" stroke="currentColor" stroke-width="1.27982" stroke-linecap="round" stroke-linejoin="round"/>
<path d="M25.6869 7.9989L23.4035 10.2855" stroke="currentColor" stroke-width="1.27982" stroke-linecap="round" stroke-linejoin="round"/>
<path d="M8.54729 22.8884L10.8307 20.6018" stroke="currentColor" stroke-width="1.27982" stroke-linecap="round" stroke-linejoin="round"/>
<path d="M15.3028 15.6586C15.146 15.9269 15.0509 16.2269 15.0247 16.5365C14.9984 16.8462 15.0415 17.1579 15.151 17.4488C15.2604 17.7397 15.4334 18.0025 15.6572 18.2181C15.8811 18.4337 16.1503 18.5966 16.4451 18.695L27.2755 22.6624L18.512 15.1627C18.2812 14.9542 18.0069 14.7997 17.7089 14.7105C17.4109 14.6213 17.0968 14.5997 16.7894 14.6472C16.482 14.6947 16.1891 14.8102 15.932 14.9851C15.6748 15.1601 15.4599 15.3901 15.3028 15.6586V15.6586Z" stroke="currentColor" stroke-width="1.27982" stroke-linecap="round" stroke-linejoin="round"/>
<path d="M16.9907 0.639907C20.7721 0.634639 24.4226 2.02464 27.2428 4.54365C30.063 7.06267 31.8548 10.5336 32.2748 14.2916C32.6949 18.0496 31.7138 21.8305 29.5193 24.9101C27.3249 27.9896 24.0715 30.1513 20.3822 30.9811" stroke="currentColor" stroke-width="1.27982" stroke-linecap="round" stroke-linejoin="round"/>
<path d="M16.9931 31.3555C13.1354 31.3602 9.41724 29.9129 6.57791 27.3014C3.73858 24.6899 1.98604 21.1055 1.66875 17.2609C1.35146 13.4163 2.49265 9.59311 4.86544 6.55147C7.23822 3.50984 10.6688 1.47256 14.475 0.844727" stroke="currentColor" stroke-width="1.27982" stroke-linecap="round" stroke-linejoin="round"/>
</g>
<defs>
<clipPath id="clip0_7608_14942">
<rect width="31.9954" height="31.9954" fill="white" transform="translate(0.995361)"/>
</clipPath>
</defs>
</svg>
