<svg width="33" height="33" viewBox="0 0 33 33" fill="currentColor" fill-opacity="0" xmlns="http://www.w3.org/2000/svg">
<g clip-path="url(#clip0_7608_14976)">
<path d="M4.12259 7.34161C3.40822 7.53153 2.77672 7.95239 2.32648 8.53863C1.87624 9.12487 1.63254 9.84356 1.63335 10.5827V23.2273C1.63312 23.9686 1.87854 24.6891 2.33124 25.2761C2.78393 25.8631 3.41838 26.2835 4.13539 26.4717C11.5373 28.4335 19.2873 28.6938 26.8041 27.2331" stroke="currentColor" stroke-width="1.27982" stroke-linecap="round" stroke-linejoin="round"/>
<path d="M29.8652 26.5228C30.5776 26.3332 31.2075 25.9136 31.6571 25.3293C32.1066 24.745 32.3506 24.0285 32.3512 23.2913V10.5667C32.3531 9.82724 32.1098 9.10801 31.6594 8.52155C31.209 7.9351 30.5769 7.51449 29.862 7.32556C22.4898 5.40403 14.7805 5.1613 7.30203 6.61527" stroke="currentColor" stroke-width="1.27982" stroke-linecap="round" stroke-linejoin="round"/>
<path d="M22.5153 16.9274L13.9405 22.6866V11.1714L22.5153 16.9274Z" stroke="currentColor" stroke-width="1.27982" stroke-linecap="round" stroke-linejoin="round"/>
</g>
<defs>
<clipPath id="clip0_7608_14976">
<rect width="31.9954" height="31.9954" fill="white" transform="translate(0.995361 0.926514)"/>
</clipPath>
</defs>
</svg>
